{
    "MonoBehaviour": {
        "m_Enabled": true,
        "m_EditorHideFlags": 0,
        "m_Name": "",
        "m_EditorClassIdentifier": "UnityEditor.PS5.Extensions:UnityEditor.PS5:PS5Settings",
        "npConfigZipPath": "",
        "monoEnv": "",
        "scriptOptimizationLevel": 2,
        "enableApplicationExit": false,
        "resetTempFolder": true,
        "disableAutoHideSplash": false,
        "playerPrefsSupport": false,
        "appType": 0,
        "restrictedAudioUsageRights": false,
        "backgroundImagePath": "",
        "startupBackgroundImagePath": "",
        "startupForegroundImagePath": "",
        "startupImagesFolder": "",
        "iconImagesFolder": "",
        "bgmPath": "",
        "playerPrefsMaxSize": 32768,
        "videoOutInitialWidth": 1920,
        "useResolutionFallback": false,
        "videoOutPixelFormat": 0,
        "videoOutOutputMode": 1,
        "paramFilePath": "",
        "passcode": "Pwu18d2qJn3hsE0zkzKNsoL6SksM4Z3L",
        "updateReferencePackage": "",
        "includedModules": [
            "libc.prx",
            "libSceFace.prx",
            "libSceFaceTracker.prx",
            "libSceJobManager.prx",
            "libSceJobManager_nosubmission.prx",
            "libSceNpCppWebApi.prx",
            "libScePfs.prx"
        ],
        "sharedBinaryContentLabels": [],
        "sharedBinarySystemFolders": [],
        "workspaceName": "workspace0",
        "buildCompressionType": 0,
        "buildCompressionLevel": 0,
        "keepPackageFiles": false,
        "buildSubtarget": 0,
        "sdkOverride": "C:\\Program Files (x86)\\SCE\\Prospero SDKs\\2.000",
        "saveDataImagePath": "",
        "configFileParsed": false,
        "operatingSystemCanDisableSplashScreen": false
    }
}